{
       "Name": "f5555",
       "DateCreated": "05-Jun-18 2:30 PM",
       "Files": [
            {
                "Name": "f5555.sln",
                "Size": "828 B",
                "Path": "D:\f5555\f5555.sln"
            }
       ],
       "Children": [
                    {
                           "Name": "f5555",
                           "DateCreated": "05-Jun-18 2:30 PM",
                           "Files": [
                                {
                                    "Name": "app.config",
                                    "Size": "173 B",
                                    "Path": "D:\f5555\f5555\app.config"
                                },
                                {
                                    "Name": "App.xaml",
                                    "Size": "263 B",
                                    "Path": "D:\f5555\f5555\App.xaml"
                                },
                                {
                                    "Name": "App.xaml.cs",
                                    "Size": "251 B",
                                    "Path": "D:\f5555\f5555\App.xaml.cs"
                                },
                                {
                                    "Name": "f5555.csproj",
                                    "Size": "3181 B",
                                    "Path": "D:\f5555\f5555\f5555.csproj"
                                },
                                {
                                    "Name": "Window1.xaml",
                                    "Size": "816 B",
                                    "Path": "D:\f5555\f5555\Window1.xaml"
                                },
                                {
                                    "Name": "Window1.xaml.cs",
                                    "Size": "626 B",
                                    "Path": "D:\f5555\f5555\Window1.xaml.cs"
                                }
                           ],
                           "Children": [
                                        {
                                               "Name": "bin",
                                               "DateCreated": "05-Jun-18 2:30 PM",
                                               "Files": []",
                                               "Children": [
                                                            {
                                                                   "Name": "Debug",
                                                                   "DateCreated": "05-Jun-18 2:30 PM",
                                                                   "Files": [
                                                                        {
                                                                            "Name": "f5555.exe",
                                                                            "Size": "7168 B",
                                                                            "Path": "D:\f5555\f5555\bin\Debug\f5555.exe"
                                                                        },
                                                                        {
                                                                            "Name": "f5555.exe.config",
                                                                            "Size": "173 B",
                                                                            "Path": "D:\f5555\f5555\bin\Debug\f5555.exe.config"
                                                                        },
                                                                        {
                                                                            "Name": "f5555.pdb",
                                                                            "Size": "19968 B",
                                                                            "Path": "D:\f5555\f5555\bin\Debug\f5555.pdb"
                                                                        }
                                                                   ],
                                                                   "Children": []",
                                                            }
                                               ]
                                        },
                                        {
                                               "Name": "obj",
                                               "DateCreated": "05-Jun-18 2:30 PM",
                                               "Files": []",
                                               "Children": [
                                                            {
                                                                   "Name": "Debug",
                                                                   "DateCreated": "05-Jun-18 2:30 PM",
                                                                   "Files": [
                                                                        {
                                                                            "Name": "App.g.cs",
                                                                            "Size": "2172 B",
                                                                            "Path": "D:\f5555\f5555\obj\Debug\App.g.cs"
                                                                        },
                                                                        {
                                                                            "Name": "f5555.csproj.FileListAbsolute.txt",
                                                                            "Size": "453 B",
                                                                            "Path": "D:\f5555\f5555\obj\Debug\f5555.csproj.FileListAbsolute.txt"
                                                                        },
                                                                        {
                                                                            "Name": "f5555.exe",
                                                                            "Size": "7168 B",
                                                                            "Path": "D:\f5555\f5555\obj\Debug\f5555.exe"
                                                                        },
                                                                        {
                                                                            "Name": "f5555.g.resources",
                                                                            "Size": "1497 B",
                                                                            "Path": "D:\f5555\f5555\obj\Debug\f5555.g.resources"
                                                                        },
                                                                        {
                                                                            "Name": "f5555.pdb",
                                                                            "Size": "19968 B",
                                                                            "Path": "D:\f5555\f5555\obj\Debug\f5555.pdb"
                                                                        },
                                                                        {
                                                                            "Name": "ResolveAssemblyReference.cache",
                                                                            "Size": "196577 B",
                                                                            "Path": "D:\f5555\f5555\obj\Debug\ResolveAssemblyReference.cache"
                                                                        }
                                                                   ],
                                                                   "Children": []",
                                                            }
                                               ]
                                        },
                                        {
                                               "Name": "Properties",
                                               "DateCreated": "05-Jun-18 2:30 PM",
                                               "Files": [
                                                    {
                                                        "Name": "AssemblyInfo.cs",
                                                        "Size": "1067 B",
                                                        "Path": "D:\f5555\f5555\Properties\AssemblyInfo.cs"
                                                    },
                                                    {
                                                        "Name": "WPFAssemblyInfo.cs",
                                                        "Size": "1045 B",
                                                        "Path": "D:\f5555\f5555\Properties\WPFAssemblyInfo.cs"
                                                    }
                                               ],
                                               "Children": []",
                                        }
                           ]
                    }
       ]
}